{
  "A bundle of open source scientific and numerical tools used in research.": "A bundle of open source scientific and numerical tools used in research.",
  "A classic Fedora desktop with an additional 3D window manager.": "A classic Fedora desktop with an additional 3D window manager.",
  "A classroom lab for teaching the Python programming language to students.": "A classroom lab for teaching the Python programming language to students.",
  "A collection and perfect showcase of the best games available in Fedora.": "A collection and perfect showcase of the best games available in Fedora.",
  "A complete and well integrated desktop.": "A complete and well integrated desktop.",
  "A complete, modern desktop built using the KDE Plasma Desktop Environment.": "A complete, modern desktop built using the KDE Plasma Desktop Environment.",
  "A foundation for Internet of Things and Device Edge ecosystem.": "A foundation for Internet of Things and Device Edge ecosystem.",
  "A light, fast, and less resource hungry desktop environment": "A light, fast, and less resource hungry desktop environment",
  "A lightweight and well intgrated LXQT desktop environment.": "A lightweight and well intgrated LXQT desktop environment.",
  "A modern desktop featuring a traditional gnome user experience.": "A modern desktop featuring a traditional gnome user experience.",
  "A plethora of Free/Open source computational modelling tools for Neuroscience.": "A plethora of Free/Open source computational modelling tools for Neuroscience.",
  "A wide variety of free and open robotics software packages for beginners and experts.": "A wide variety of free and open robotics software packages for beginners and experts.",
  "About": "About",
  "Accounts & Apps": "Accounts & Apps",
  "Activities beyond engineering: Learn about the teams focused on Fedora's outreach, brand, & more.": "Activities beyond engineering: Learn about the teams focused on Fedora's outreach, brand, & more.",
  "Add a translation": "Add a translation",
  "Add translation": "Add translation",
  "All Teams & Tags": "All Teams & Tags",
  "An automatically-updating, minimal operating system for running containerized workloads securely and at scale.": "An automatically-updating, minimal operating system for running containerized workloads securely and at scale.",
  "An in-depth guide to installing Fedora Linux.": "An in-depth guide to installing Fedora Linux.",
  "Announcements that are pertinent to Fedora developers and the Fedora infrastructure team tend to be posted here.": "Announcements that are pertinent to Fedora developers and the Fedora infrastructure team tend to be posted here.",
  "Astronomy": "Astronomy",
  "Badges": "Badges",
  "Beyond the official channels for Fedorans to communicate, community members are involved on other popular platforms as well! Check out IRC, Discord, Telegram, Reddit, and more!": "Beyond the official channels for Fedorans to communicate, community members are involved on other popular platforms as well! Check out IRC, Discord, Telegram, Reddit, and more!",
  "Budgie Desktop": "Budgie Desktop",
  "Cinnamon Desktop": "Cinnamon Desktop",
  "Connections": "Connections",
  "Contributors": "Contributors",
  "Design Suite": "Design Suite",
  "Did you notice a glaring typo or a broken link in these docs? Click here to find out how you can help make it right!": "Did you notice a glaring typo or a broken link in these docs? Click here to find out how you can help make it right!",
  "Diversity & Inclusion": "Diversity & Inclusion",
  "Documentation": "Documentation",
  "Downloading Fedora Linux": "Downloading Fedora Linux",
  "Easy Fix": "Easy Fix",
  "Edit fedoraproject.org using the content management system! Tip: Use the GitLab SSO link to open a session first.": "Edit fedoraproject.org using the content management system! Tip: Use the GitLab SSO link to open a session first.",
  "Edit these docs": "Edit these docs",
  "Edit this website": "Edit this website",
  "Editions": "Editions",
  "Engineering Teams": "Engineering Teams",
  "Extended Social Channels": "Extended Social Channels",
  "Fedora Accounts": "Fedora Accounts",
  "Fedora Community Blog": "Fedora Community Blog",
  "Fedora Council": "Fedora Council",
  "Fedora Developer": "Fedora Developer",
  "Fedora Docs": "Fedora Docs",
  "Fedora Kinoite is an immutable KDE-based desktop.": "Fedora Kinoite is an immutable KDE-based desktop.",
  "Fedora Linux bugs are reported to Red Hat's bugzilla.": "Fedora Linux bugs are reported to Red Hat's bugzilla.",
  "Fedora Linux with the Budgie Desktop": "Fedora Linux with the Budgie Desktop",
  "Fedora Linux with the Sway Tiling Window Manager": "Fedora Linux with the Sway Tiling Window Manager",
  "Fedora Linux with the i3 Tiling Window Manager.": "Fedora Linux with the i3 Tiling Window Manager.",
  "Fedora Magazine": "Fedora Magazine",
  "Fedora Magazine is a website that hosts promotional articles and short guides contributed from the community about free/libre and open-source software that runs on or works with the Fedora Linux operating system.": "Fedora Magazine is a website that hosts promotional articles and short guides contributed from the community about free/libre and open-source software that runs on or works with the Fedora Linux operating system.",
  "Fedora Quick Docs": "Fedora Quick Docs",
  "Fedora Sericea is an immutable Sway-based desktop.": "Fedora Sericea is an immutable Sway-based desktop.",
  "Fedora Silverblue is an immutable desktop operating system aimed at good support for container-focused workflows.": "Fedora Silverblue is an immutable desktop operating system aimed at good support for container-focused workflows.",
  "Fedora Social": "Fedora Social",
  "Fedora built for Pinephone and Pinephone Pro": "Fedora built for Pinephone and Pinephone Pro",
  "Fedora has lots of teams! Click here to see a more complete list.": "Fedora has lots of teams! Click here to see a more complete list.",
  "Fedora new release and beta release announcements show up here first. Test Day announcements are also posted here. This blog also hosts articles contributed from users like you!": "Fedora new release and beta release announcements show up here first. Test Day announcements are also posted here. This blog also hosts articles contributed from users like you!",
  "Fedora releases two major versions every year. We celebrate the hard work of our contributors virtually at each release.": "Fedora releases two major versions every year. We celebrate the hard work of our contributors virtually at each release.",
  "Fedora\u2019s Mission and Foundations": "Fedora\u2019s Mission and Foundations",
  "Flock To Fedora": "Flock To Fedora",
  "Follow us on Mastodon! This is a great place to stay up to date on the latest in the Fedora community.": "Follow us on Mastodon! This is a great place to stay up to date on the latest in the Fedora community.",
  "Follow us on twitter! This is a great place to stay up to date on the latest in the Fedora community.": "Follow us on twitter! This is a great place to stay up to date on the latest in the Fedora community.",
  "For audio enthusiasts and musicians who want to create, edit, and produce audio and music on Linux.": "For audio enthusiasts and musicians who want to create, edit, and produce audio and music on Linux.",
  "From mobile apps to web; from desktop to GUIs to CLI tools; create it all easily with Fedora.": "From mobile apps to web; from desktop to GUIs to CLI tools; create it all easily with Fedora.",
  "Games": "Games",
  "General Q&A": "General Q&A",
  "Getting Started": "Getting Started",
  "Get\u00a0Fedora": "Get\u00a0Fedora",
  "GitLab is the newest of Fedora's official version control systems. It supports single-sign-on with Fedora accounts.": "GitLab is the newest of Fedora's official version control systems. It supports single-sign-on with Fedora accounts.",
  "Help": "Help",
  "Help!": "Help!",
  "How to select the appropriate download.": "How to select the appropriate download.",
  "How to upgrade an existing Fedora Linux installation.": "How to upgrade an existing Fedora Linux installation.",
  "How to use Weblate": "How to use Weblate",
  "If you need help installing, using, or customizing Fedora Linux, or have any other questions about the operating system or the Fedora Project, this is the place to ask!": "If you need help installing, using, or customizing Fedora Linux, or have any other questions about the operating system or the Fedora Project, this is the place to ask!",
  "Images optimized to run on cloud infrastructures.": "Images optimized to run on cloud infrastructures.",
  "Immutable Desktops": "Immutable Desktops",
  "Infrastructure Status": "Infrastructure Status",
  "Installation": "Installation",
  "It's Fedora's calendar!": "It's Fedora's calendar!",
  "Join SIG": "Join SIG",
  "LXDE Desktop": "LXDE Desktop",
  "LXQT Desktop": "LXQT Desktop",
  "Labs": "Labs",
  "Languages": "Languages",
  "Learn about FESCo and Engineering subprojects, SIGs, Work Groups, and teams.": "Learn about FESCo and Engineering subprojects, SIGs, Work Groups, and teams.",
  "Learn about packaging for Fedora Linux \u2014 from both a policy and a technical perspective.": "Learn about packaging for Fedora Linux \u2014 from both a policy and a technical perspective.",
  "Learn about the Fedora Project governance.": "Learn about the Fedora Project governance.",
  "Legal": "Legal",
  "Mailing Lists": "Mailing Lists",
  "Many of Fedora's groups use this version control system.": "Many of Fedora's groups use this version control system.",
  "Mate-Compiz Desktop": "Mate-Compiz Desktop",
  "Mindshare Teams": "Mindshare Teams",
  "Most subprojects hold weekly meetings in chatrooms. Fedora's Zodbot listens in on these meetings and keeps the logs here.": "Most subprojects hold weekly meetings in chatrooms. Fedora's Zodbot listens in on these meetings and keeps the logs here.",
  "New Contributors": "New Contributors",
  "News & Announcements": "News & Announcements",
  "News & Publications": "News & Publications",
  "Other Sources": "Other Sources",
  "Our flagship Fedora Linux variants for different uses.": "Our flagship Fedora Linux variants for different uses.",
  "Over the years, Fedorans have created many sources of information about Fedora Linux and the Fedora Project.": "Over the years, Fedorans have created many sources of information about Fedora Linux and the Fedora Project.",
  "Package Sources": "Package Sources",
  "Packaging & Development": "Packaging & Development",
  "Packaging Guidelines": "Packaging Guidelines",
  "Pick a language to view this page in your language": "Pick a language to view this page in your language",
  "Policies for licensing, trademarks, and other legal issues.": "Policies for licensing, trademarks, and other legal issues.",
  "Powerful, completely open-source and free tools for amateur and professional astronomers.": "Powerful, completely open-source and free tools for amateur and professional astronomers.",
  "Program Management": "Program Management",
  "Project Discussion": "Project Discussion",
  "Python Classroom": "Python Classroom",
  "Release Parties": "Release Parties",
  "Release planning, scheduling, and status tracking.": "Release planning, scheduling, and status tracking.",
  "Robotics Suite": "Robotics Suite",
  "Run applications on bare metal or the cloud with a Linux server OS packed with the latest open source technology.": "Run applications on bare metal or the cloud with a Linux server OS packed with the latest open source technology.",
  "Scientific": "Scientific",
  "Security Lab": "Security Lab",
  "Social & Events": "Social & Events",
  "Spins": "Spins",
  "Sway Tiling WM": "Sway Tiling WM",
  "Talented leaders are elected to oversee the Fedora Project and Fedora's subprojects.": "Talented leaders are elected to oversee the Fedora Project and Fedora's subprojects.",
  "The Desktop spins feature specific Linux Desktop Environments. Our official Workstation Edition uses the Gnome Desktop, but you can install Fedora preconfigured with any of the listed Desktop Environments.": "The Desktop spins feature specific Linux Desktop Environments. Our official Workstation Edition uses the Gnome Desktop, but you can install Fedora preconfigured with any of the listed Desktop Environments.",
  "The Extra Packages for Enterprise Linux special interest group": "The Extra Packages for Enterprise Linux special interest group",
  "The Fedora Cloud edition working group": "The Fedora Cloud edition working group",
  "The Fedora CoreOS working group": "The Fedora CoreOS working group",
  "The Fedora IoT (Internet of Things) edition working group": "The Fedora IoT (Internet of Things) edition working group",
  "The Fedora Kinoite team": "The Fedora Kinoite team",
  "The Fedora Project Leader likes to post things here. This forum also receives weekly updates from The Fedora Project Manager and the Community Platform Engineering team.": "The Fedora Project Leader likes to post things here. This forum also receives weekly updates from The Fedora Project Manager and the Community Platform Engineering team.",
  "The Fedora Project is a community of people working together to build a free and open source software platform and to collaborate on and share user-focused solutions built on that platform. Or, in plain English, we make an operating system and we make it easy for you to do useful stuff with it.": "The Fedora Project is a community of people working together to build a free and open source software platform and to collaborate on and share user-focused solutions built on that platform. Or, in plain English, we make an operating system and we make it easy for you to do useful stuff with it.",
  "The Fedora Server edition working group": "The Fedora Server edition working group",
  "The Fedora Silverblue team": "The Fedora Silverblue team",
  "The Fedora Social chat room is a place for Fedora community members to relax and talk about most any topics they wish.": "The Fedora Social chat room is a place for Fedora community members to relax and talk about most any topics they wish.",
  "The Labs are Fedora Linux set up with software bundles based on particular topics.": "The Labs are Fedora Linux set up with software bundles based on particular topics.",
  "The Water Cooler": "The Water Cooler",
  "The annual contributor conference for Fedora Linux. Flock takes place at the beginning of August.": "The annual contributor conference for Fedora Linux. Flock takes place at the beginning of August.",
  "The flagship Fedora edition featuring the latest Gnome desktop. The Linux desktop you've been waiting for.": "The flagship Fedora edition featuring the latest Gnome desktop. The Linux desktop you've been waiting for.",
  "The goal of this initiative is to help foster diversity and inclusion in Fedora community.": "The goal of this initiative is to help foster diversity and inclusion in Fedora community.",
  "These are a few free-form communication channels and some links to information about Fedora's release parties and annual conferences. Fedorans regularly come together to celebrate our community and the hard work that we put into it!": "These are a few free-form communication channels and some links to information about Fedora's release parties and annual conferences. Fedorans regularly come together to celebrate our community and the hard work that we put into it!",
  "These are places to get (and give) user support.": "These are places to get (and give) user support.",
  "These are sites where updates about new and upcomming events, releases, packages, and projects are likely to be posted. You might want to subscribe to some of these to get the notices in your inbox.": "These are sites where updates about new and upcomming events, releases, packages, and projects are likely to be posted. You might want to subscribe to some of these to get the notices in your inbox.",
  "These are some convenient links to the discussion threads for several of Fedora's larger subprojects and special interest groups.": "These are some convenient links to the discussion threads for several of Fedora's larger subprojects and special interest groups.",
  "These are some introductory guides to help users get started with Fedora Linux.": "These are some introductory guides to help users get started with Fedora Linux.",
  "These are some low-priority items that are thought to be good entry-level tasks for a new contributor to start with.": "These are some low-priority items that are thought to be good entry-level tasks for a new contributor to start with.",
  "These are some of the tools that you will use when contributing to the Fedora Project.": "These are some of the tools that you will use when contributing to the Fedora Project.",
  "These are the tools and Git forges that Fedora packagers and developers use to build the Fedora systems.": "These are the tools and Git forges that Fedora packagers and developers use to build the Fedora systems.",
  "These documentation pages are contributor-focused. They include Fedora's guidelines, teams, organizational structure, and legal docs. If you are looking for user guides (installation, getting started, etc.) check under the Help menu.": "These documentation pages are contributor-focused. They include Fedora's guidelines, teams, organizational structure, and legal docs. If you are looking for user guides (installation, getting started, etc.) check under the Help menu.",
  "These editions are supported but not yet a part of the official Fedora editions.": "These editions are supported but not yet a part of the official Fedora editions.",
  "These pages connect you to all the different spaces that Fedorans work on projects. From new to long-term contributors, the following links will get you to where you want to go.": "These pages connect you to all the different spaces that Fedorans work on projects. From new to long-term contributors, the following links will get you to where you want to go.",
  "This is Fedora's main forum for all project collaboration and user support. Also, if you have encountered a problem that might be a software bug, this is a good place to triage it with other users before escalating it to Red Hat's bugzilla reporting system.": "This is Fedora's main forum for all project collaboration and user support. Also, if you have encountered a problem that might be a software bug, this is a good place to triage it with other users before escalating it to Red Hat's bugzilla reporting system.",
  "This is Fedora's official build system. It is used to create, test, and publish packages.": "This is Fedora's official build system. It is used to create, test, and publish packages.",
  "This is a collection of short HOWTO and FAQ-style documentation for Fedora users.": "This is a collection of short HOWTO and FAQ-style documentation for Fedora users.",
  "This is a special interest group that has formed for the sole purpose of helping new contributors get involved. Fedora is big and complex and it needs your help!": "This is a special interest group that has formed for the sole purpose of helping new contributors get involved. Fedora is big and complex and it needs your help!",
  "This is a week in September where we highlight the contributions and experiences of women, lgbtq+, and bipoc in Fedora.": "This is a week in September where we highlight the contributions and experiences of women, lgbtq+, and bipoc in Fedora.",
  "This is an easy-to-use build system for the Fedora community.": "This is an easy-to-use build system for the Fedora community.",
  "This is an open-source git forge that hosts most of Fedora's source RPM packages.": "This is an open-source git forge that hosts most of Fedora's source RPM packages.",
  "This is an open-source git forge that the Fedora Project uses.": "This is an open-source git forge that the Fedora Project uses.",
  "This is primarily a collaboration tool for the community. Content that has been submitted here might be out of date and/or it might not have undergone the same level of scrutiny as the information on Fedora Docs.": "This is primarily a collaboration tool for the community. Content that has been submitted here might be out of date and/or it might not have undergone the same level of scrutiny as the information on Fedora Docs.",
  "This is the main index page for all of Fedora's Documentation. If you weren't able to find a direct link to what you were looking for in this site's menus, you can try searching from here.": "This is the main index page for all of Fedora's Documentation. If you weren't able to find a direct link to what you were looking for in this site's menus, you can try searching from here.",
  "This is the proverbial office \u201cwater cooler\u201d, where people gather for \u201cbreak from work\u201d conversation. Introduce yourself, have (friendly!) off-topic discussions, and socialize!": "This is the proverbial office \u201cwater cooler\u201d, where people gather for \u201cbreak from work\u201d conversation. Introduce yourself, have (friendly!) off-topic discussions, and socialize!",
  "This is the software that builds Fedora's RPM packages.": "This is the software that builds Fedora's RPM packages.",
  "This is where contributors are awarded tokens of recognition for their contributions. How many can you get!": "This is where contributors are awarded tokens of recognition for their contributions. How many can you get!",
  "This page lists known and scheduled outages of Fedora Project services.": "This page lists known and scheduled outages of Fedora Project services.",
  "To be granted access and be credited for your contributions, you will need a Fedora account. Do this first!": "To be granted access and be credited for your contributions, you will need a Fedora account. Do this first!",
  "Translations": "Translations",
  "Upgrading Fedora Linux": "Upgrading Fedora Linux",
  "Use this link to connect with other workstation contributors.": "Use this link to connect with other workstation contributors.",
  "Use this link to focus on questions and answers about Fedora Cloud.": "Use this link to focus on questions and answers about Fedora Cloud.",
  "Use this link to focus on questions and answers about Fedora CoreOS.": "Use this link to focus on questions and answers about Fedora CoreOS.",
  "Use this link to focus on questions and answers about Fedora IoT (Internet of Things).": "Use this link to focus on questions and answers about Fedora IoT (Internet of Things).",
  "Use this link to focus on questions and answers about Fedora Server.": "Use this link to focus on questions and answers about Fedora Server.",
  "Use this link to focus on questions and answers about Fedora Workstation.": "Use this link to focus on questions and answers about Fedora Workstation.",
  "Use this link to focus on questions and answers about installing Fedora Linux.": "Use this link to focus on questions and answers about installing Fedora Linux.",
  "Use this link to focus on questions and answers about the GNOME desktop environment.": "Use this link to focus on questions and answers about the GNOME desktop environment.",
  "Use this link to focus on questions and answers about the KDE desktop environment.": "Use this link to focus on questions and answers about the KDE desktop environment.",
  "User Guides": "User Guides",
  "Visual design, multimedia production, and publishing suite of free and open source creative tools.": "Visual design, multimedia production, and publishing suite of free and open source creative tools.",
  "We are always excited to work with new contributors. If you're new to the project, check out these sites.": "We are always excited to work with new contributors. If you're new to the project, check out these sites.",
  "We use weblate to translate our site. Please find relevant links below.": "We use weblate to translate our site. Please find relevant links below.",
  "Week of Diversity": "Week of Diversity",
  "Workstation": "Workstation",
  "Yes, they still exist.": "Yes, they still exist.",
  "You can use this to search for things in Fedora's code repositores. See the Fedora Magazine article for more info.": "You can use this to search for things in Fedora's code repositores. See the Fedora Magazine article for more info.",
  "i3 Tiling WM": "i3 Tiling WM"
}
